{
    "path": "tiles/33/T/VM/2020/4/15/0",
    "timestamp": "2020-04-15T10:07:51.825Z",
    "utmZone": 33,
    "latitudeBand": "T",
    "gridSquare": "VM",
    "datastrip": {
        "id": "S2A_OPER_MSI_L1C_DS_MPS__20200415T121308_S20200415T100113_N02.09",
        "path": "products/2020/4/15/S2A_MSIL1C_20200415T100031_N0209_R122_T33TVM_20200415T121308/datastrip/0"
    },
    "tileGeometry": {
        "type": "Polygon",
        "crs": {
            "type": "name",
            "properties": {
                "name": "urn:ogc:def:crs:EPSG:8.8.1:32633"
            }
        },
        "coordinates": [
            [
                [
                    399960.0,
                    5200020.0
                ],
                [
                    509760.0,
                    5200020.0
                ],
                [
                    509760.0,
                    5090220.0
                ],
                [
                    399960.0,
                    5090220.0
                ],
                [
                    399960.0,
                    5200020.0
                ]
            ]
        ]
    },
    "tileDataGeometry": {
        "type": "Polygon",
        "crs": {
            "type": "name",
            "properties": {
                "name": "urn:ogc:def:crs:EPSG:8.8.1:32633"
            }
        },
        "coordinates": [
            [
                [
                    399961.0,
                    5200019.0
                ],
                [
                    509759.0,
                    5200019.0
                ],
                [
                    509759.0,
                    5090221.0
                ],
                [
                    399961.0,
                    5090221.0
                ],
                [
                    399961.0,
                    5200019.0
                ]
            ]
        ]
    },
    "tileOrigin": {
        "type": "Point",
        "crs": {
            "type": "name",
            "properties": {
                "name": "urn:ogc:def:crs:EPSG:8.8.1:32633"
            }
        },
        "coordinates": [
            399960.0,
            5200020.0
        ]
    },
    "dataCoveragePercentage": 100.0,
    "cloudyPixelPercentage": 2.11,
    "productName": "S2A_MSIL1C_20200415T100031_N0209_R122_T33TVM_20200415T121308",
    "productPath": "products/2020/4/15/S2A_MSIL1C_20200415T100031_N0209_R122_T33TVM_20200415T121308"
}